Transform Data
================

# dplyr

## Your Turn 1

Alter the code to select just the `n` column:

``` r
select(babynames, name, prop)
```

    # A tibble: 1,924,665 × 2
       name        prop
       <chr>      <dbl>
     1 Mary      0.0724
     2 Anna      0.0267
     3 Emma      0.0205
     4 Elizabeth 0.0199
     5 Minnie    0.0179
     6 Margaret  0.0162
     7 Ida       0.0151
     8 Alice     0.0145
     9 Bertha    0.0135
    10 Sarah     0.0132
    # … with 1,924,655 more rows

## Quiz

Which of these is NOT a way to select the `name` and `n` columns
together?

``` r
select(babynames, -c(year, sex, prop))
```

    # A tibble: 1,924,665 × 2
       name          n
       <chr>     <int>
     1 Mary       7065
     2 Anna       2604
     3 Emma       2003
     4 Elizabeth  1939
     5 Minnie     1746
     6 Margaret   1578
     7 Ida        1472
     8 Alice      1414
     9 Bertha     1320
    10 Sarah      1288
    # … with 1,924,655 more rows

``` r
select(babynames, name:n)
```

    # A tibble: 1,924,665 × 2
       name          n
       <chr>     <int>
     1 Mary       7065
     2 Anna       2604
     3 Emma       2003
     4 Elizabeth  1939
     5 Minnie     1746
     6 Margaret   1578
     7 Ida        1472
     8 Alice      1414
     9 Bertha     1320
    10 Sarah      1288
    # … with 1,924,655 more rows

``` r
select(babynames, starts_with("n"))
```

    # A tibble: 1,924,665 × 2
       name          n
       <chr>     <int>
     1 Mary       7065
     2 Anna       2604
     3 Emma       2003
     4 Elizabeth  1939
     5 Minnie     1746
     6 Margaret   1578
     7 Ida        1472
     8 Alice      1414
     9 Bertha     1320
    10 Sarah      1288
    # … with 1,924,655 more rows

``` r
select(babynames, ends_with("n"))
```

    # A tibble: 1,924,665 × 1
           n
       <int>
     1  7065
     2  2604
     3  2003
     4  1939
     5  1746
     6  1578
     7  1472
     8  1414
     9  1320
    10  1288
    # … with 1,924,655 more rows
…
